<?xml version="1.0" encoding="UTF-8"?>
<!-- Generated by org.testng.reporters.JUnitReportReporter -->
<testsuite hostname="REM-MC-220707A.local" failures="0" tests="4" name="com.example.mytest.CrudOperationsTest" time="2.728" errors="0" timestamp="2022-12-01T14:50:57 CST" skipped="0">
  <testcase classname="com.example.mytest.CrudOperationsTest" name="testGetSingleResourceActivity" time="0.717"/>
  <system-out>
    <![CDATA[Success 200 status code ]]>
  </system-out>
  <testcase classname="com.example.mytest.CrudOperationsTest" name="testAddUser" time="1.494"/>
  <system-out/>
  <testcase classname="com.example.mytest.CrudOperationsTest" name="testGetUser" time="0.251"/>
  <system-out>
    <![CDATA[Success status code validation
{"page":1,"per_page":6,"total":12,"total_pages":2,"data":[{"id":1,"email":"george.bluth@reqres.in","first_name":"George","last_name":"Bluth","avatar":"https://reqres.in/img/faces/1-image.jpg"},{"id":2,"email":"janet.weaver@reqres.in","first_name":"Janet","last_name":"Weaver","avatar":"https://reqres.in/img/faces/2-image.jpg"},{"id":3,"email":"emma.wong@reqres.in","first_name":"Emma","last_name":"Wong","avatar":"https://reqres.in/img/faces/3-image.jpg"},{"id":4,"email":"eve.holt@reqres.in","first_name":"Eve","last_name":"Holt","avatar":"https://reqres.in/img/faces/4-image.jpg"},{"id":5,"email":"charles.morris@reqres.in","first_name":"Charles","last_name":"Morris","avatar":"https://reqres.in/img/faces/5-image.jpg"},{"id":6,"email":"tracey.ramos@reqres.in","first_name":"Tracey","last_name":"Ramos","avatar":"https://reqres.in/img/faces/6-image.jpg"}],"support":{"url":"https://reqres.in/#support-heading","text":"To keep ReqRes free, contributions towards server costs are appreciated!"}}]]>
  </system-out>
  <testcase classname="com.example.mytest.CrudOperationsTest" name="testGetSingleUseActivity" time="0.266"/>
  <system-out>
    <![CDATA[Success 200 status code ]]>
  </system-out>
</testsuite> <!-- com.example.mytest.CrudOperationsTest -->
